{
    "forms":[
        {
            "id": "f1",
            "nom": "formulaire 1",
            "inputs":[
                {
                    "id":"in1",
                    "title":"Nom",
                    "type":"text",
                    "placeHolder":"Entrez votre nom"
                },
                {
                    "id":"in2",
                    "title":"Prenom",
                    "type":"text",
                    "placeHolder":"Entrez votre prenom"
                },
                {
                    "id":"in3",
                    "title":"Age",
                    "type":"text",
                    "placeHolder":"Entrez votre age"
                },
                {
                    "id":"in4",
                    "title":"Email",
                    "type":"text",
                    "placeHolder":"Entrez votre email"
                }
            ]
        },
        {
            "id": "f2",
            "nom": "formulaire 2",
            "inputs":[
                {
                    "id":"in1",
                    "title":"Nom",
                    "type":"text",
                    "placeHolder":"Entrez votre nom"
                },
                {
                    "id":"in2",
                    "title":"Prenom",
                    "type":"text",
                    "placeHolder":"Entrez votre prenom"
                },
                {
                    "id":"in3",
                    "title":"Age",
                    "type":"text",
                    "placeHolder":"Entrez votre age"
                },
                {
                    "id":"in4",
                    "title":"Email",
                    "type":"text",
                    "placeHolder":"Entrez votre email"
                }
            ]
        },
        {
            "id": "f3",
            "nom": "formulaire 3",
            "inputs":[
                {
                    "id":"in1",
                    "title":"Nom",
                    "type":"text",
                    "placeHolder":"Entrez votre nom"
                },
                {
                    "id":"in2",
                    "title":"Prenom",
                    "type":"text",
                    "placeHolder":"Entrez votre prenom"
                },
                {
                    "id":"in3",
                    "title":"Age",
                    "type":"text",
                    "placeHolder":"Entrez votre age"
                },
                {
                    "id":"in4",
                    "title":"Email",
                    "type":"text",
                    "placeHolder":"Entrez votre email"
                }
            ]
        }
    ]
}